…
``` r
library(SnowballC)
# Perform stemming on tidy_animal_farm
stemmed_animal_farm <- tidy_animal_farm %>%
    mutate(word = wordStem(word))

# Print the old word frequencies 
tidy_animal_farm %>%
    count(word, sort = T)
```

    ## # A tibble: 4,076 x 2
    ##    word      n
    ##    <chr> <int>
    ##  1 the    2187
    ##  2 and     966
    ##  3 of      899
    ##  4 to      814
    ##  5 was     633
    ##  6 a       620
    ##  7 in      537
    ##  8 had     529
    ##  9 that    451
    ## 10 it      384
    ## # ... with 4,066 more rows

``` r
# Print the new word frequencies
stemmed_animal_farm %>%
    count(word, sort = T)
```

    ## # A tibble: 3,095 x 2
    ##    word      n
    ##    <chr> <int>
    ##  1 the    2187
    ##  2 and     966
    ##  3 of      899
    ##  4 to      814
    ##  5 a       804
    ##  6 wa      633
    ##  7 in      537
    ##  8 had     529
    ##  9 that    451
    ## 10 it      405
    ## # ... with 3,085 more rows
…
``` r
# Create a tibble with TFIDF values
crude_weights <- crude_tibble %>%
  unnest_tokens(output = "word", token = "words", input = text) %>%
  anti_join(stop_words) %>%
  count(article_id, word) %>%
  bind_tf_idf(word, article_id, n)

# Find the highest TFIDF values
crude_weights %>%
  arrange(desc(tf_idf))
```

    ## # A tibble: 1,498 x 6
    ##    article_id word         n     tf   idf tf_idf
    ##    <chr>      <chr>    <int>  <dbl> <dbl>  <dbl>
    ##  1 708        january      4 0.0930  2.30  0.214
    ##  2 368        power        4 0.0690  3.00  0.207
    ##  3 704        futures      9 0.0643  3.00  0.193
    ##  4 242        8            6 0.0619  3.00  0.185
    ##  5 191        canada       2 0.0526  3.00  0.158
    ##  6 191        canadian     2 0.0526  3.00  0.158
    ##  7 368        ship         3 0.0517  3.00  0.155
    ##  8 704        nymex        7 0.05    3.00  0.150
    ##  9 708        cubic        2 0.0465  3.00  0.139
    ## 10 708        fiscales     2 0.0465  3.00  0.139
    ## # ... with 1,488 more rows

``` r
# Find the lowest non-zero TFIDF values
crude_weights %>%
  filter(tf_idf != 0) %>%
  arrange(tf_idf)
```

    ## # A tibble: 1,458 x 6
    ##    article_id word          n      tf   idf  tf_idf
    ##    <chr>      <chr>     <int>   <dbl> <dbl>   <dbl>
    ##  1 237        prices        1 0.00452 0.288 0.00130
    ##  2 246        prices        1 0.00513 0.288 0.00148
    ##  3 237        dlrs          1 0.00452 0.598 0.00271
    ##  4 237        opec          1 0.00452 0.693 0.00314
    ##  5 246        opec          1 0.00513 0.693 0.00355
    ##  6 237        mln           1 0.00452 0.799 0.00361
    ##  7 237        petroleum     1 0.00452 0.799 0.00361
    ##  8 273        petroleum     1 0.00455 0.799 0.00363
    ##  9 236        barrels       1 0.00429 0.916 0.00393
    ## 10 236        industry      1 0.00429 0.916 0.00393
    ## # ... with 1,448 more rows
…
``` r
# Create word counts 
animal_farm_counts <- animal_farm %>%
  unnest_tokens(word, text_column) %>%
  anti_join(stop_words) %>%
  count(chapter, word) %>%
  bind_tf_idf(chapter, word, n)

# Calculate cosine similarity on word counts
animal_farm_counts %>%
  pairwise_similarity(chapter, word, n) %>%
  arrange(desc(similarity))
```

    ## # A tibble: 90 x 3
    ##    item1      item2      similarity
    ##    <chr>      <chr>           <dbl>
    ##  1 Chapter 8  Chapter 7       0.696
    ##  2 Chapter 7  Chapter 8       0.696
    ##  3 Chapter 7  Chapter 5       0.693
    ##  4 Chapter 5  Chapter 7       0.693
    ##  5 Chapter 8  Chapter 5       0.642
    ##  6 Chapter 5  Chapter 8       0.642
    ##  7 Chapter 7  Chapter 6       0.641
    ##  8 Chapter 6  Chapter 7       0.641
    ##  9 Chapter 6  Chapter 10      0.638
    ## 10 Chapter 10 Chapter 6       0.638
    ## # ... with 80 more rows

``` r
# Calculate cosine similarity using tf_idf values
animal_farm_counts %>%
  pairwise_similarity(chapter, word, tf_idf) %>%
  arrange(desc(similarity))
```

    ## # A tibble: 90 x 3
    ##    item1      item2      similarity
    ##    <chr>      <chr>           <dbl>
    ##  1 Chapter 8  Chapter 7      0.0580
    ##  2 Chapter 7  Chapter 8      0.0580
    ##  3 Chapter 9  Chapter 8      0.0525
    ##  4 Chapter 8  Chapter 9      0.0525
    ##  5 Chapter 7  Chapter 5      0.0467
    ##  6 Chapter 5  Chapter 7      0.0467
    ##  7 Chapter 9  Chapter 10     0.0446
    ##  8 Chapter 10 Chapter 9      0.0446
    ##  9 Chapter 9  Chapter 7      0.0432
    ## 10 Chapter 7  Chapter 9      0.0432
    ## # ... with 80 more rows
…
